…
scale_colour_discrete = scale_colour_viridis_d
scale_fill_discrete = scale_fill_viridis_d
```

## Load a dataset

``` r
data("nyc_airbnb")
force(nyc_airbnb)
```

    ## # A tibble: 40,753 × 17
    ##          id review_scores_location name       host_id host_name neighbourhood_g…
    ##       <dbl>                  <dbl> <chr>        <dbl> <chr>     <chr>           
    ##  1  7949480                     10 City Isl…   119445 Linda & … Bronx           
    ##  2 16042478                     NA WATERFRO…  9117975 Collins   Bronx           
    ##  3  1886820                     NA Quaint C…  9815788 Steve     Bronx           
    ##  4  6627449                     10 Large 1 … 13886510 Arlene    Bronx           
    ##  5  5557381                     10 Quaint C… 28811542 Phoebe    Bronx           
    ##  6  9147025                     10 Cozy Cit…   403032 Diane     Bronx           
    ##  7 11675715                     10 Cozy 1 B… 56714504 Josue     Bronx           
    ##  8   715270                      9 2 Beds/Q…  3684360 Enrique   Bronx           
    ##  9 17876530                     10 Spacious… 11305944 Yahaira   Bronx           
    ## 10   182177                      9 PRIVATE …   873273 Christia… Bronx           
    ## # … with 40,743 more rows, and 11 more variables: neighbourhood <chr>,
    ## #   lat <dbl>, long <dbl>, room_type <chr>, price <dbl>, minimum_nights <dbl>,
    ## #   number_of_reviews <dbl>, last_review <date>, reviews_per_month <dbl>,
    ## #   calculated_host_listings_count <dbl>, availability_365 <dbl>
…
    ## Warning: Removed 10037 rows containing missing values (geom_point).

<img src="case_study_files/figure-gfm/unnamed-chunk-5-1.png" width="90%" />

Price and Neighborhood

``` r
nyc_airbnb %>% 
  filter(borough == "Manhattan") %>% 
  group_by(neighbourhood) %>% 
  summarize(mean_price = mean(price, na.rm = TRUE)) %>% 
arrange(mean_price)
```

    ## # A tibble: 32 × 2
    ##    neighbourhood       mean_price
    ##    <chr>                    <dbl>
    ##  1 Marble Hill               83.6
    ##  2 Inwood                    86.5
    ##  3 Washington Heights        90.1
    ##  4 Morningside Heights      107. 
    ##  5 Harlem                   117. 
    ##  6 Roosevelt Island         122. 
    ##  7 Two Bridges              123. 
    ##  8 East Harlem              128. 
    ##  9 Chinatown                158. 
    ## 10 Upper East Side          172. 
    ## # … with 22 more rows
…
